Tracksuit Survey Allocation Optimisation
…
    tibble(
      respondents = respondents,
      success = all(qualified >= 200)
    )

  })
}

lp_sim <- simulate_lp(categories)

lp_sim

## # A tibble: 500 × 2
##    respondents success
##          <dbl> <lgl>  
##  1        2092 TRUE   
##  2        2092 TRUE   
##  3        2092 TRUE   
##  4        2092 TRUE   
##  5        2092 TRUE   
##  6        2092 TRUE   
##  7        2092 FALSE  
##  8        2092 TRUE   
##  9        2092 FALSE  
## 10        2092 TRUE   
## # ℹ 490 more rows
…
